{
    "files": [
        {
            "id": 235030,
            "project_id": 12031,
            "batch_id": 12478,
            "duration": 880829,
            "attribute1": null,
            "attribute2": null,
            "video_id": null,
            "name": "csco_640_864_05_high",
            "attribute3": null,
            "callback_url": null,
            "description": null,
            "created_at": "2013-06-07T19:27:19.000-04:00",
            "updated_at": "2014-06-18T16:30:52.000-04:00",
            "word_count": 2154,
            "thumbnail_url": null,
            "language_id": 1,
            "default_service_type_id": 1,
            "downloaded": true,
            "state": "delivered",
            "turnaround_level_id": 1,
            "deadline": "2013-06-13T20:00:00.000-04:00",
            "batch_name": "csco_640-864",
            "error_description": ""
        },
        {
            "id": 266214,
            "project_id": 12031,
            "batch_id": 13677,
            "duration": 416477,
            "attribute1": null,
            "attribute2": null,
            "video_id": null,
            "name": "msft_70_687_01_high",
            "attribute3": null,
            "callback_url": null,
            "description": null,
            "created_at": "2013-08-09T16:06:10.000-04:00",
            "updated_at": "2014-06-18T16:30:52.000-04:00",
            "word_count": 1341,
            "thumbnail_url": null,
            "language_id": 1,
            "default_service_type_id": 1,
            "downloaded": true,
            "state": "delivered",
            "turnaround_level_id": 1,
            "deadline": "2013-08-15T20:00:00.000-04:00",
            "batch_name": "msft_70_687_01",
            "error_description": ""
        },
        {
            "id": 266215,
            "project_id": 12031,
            "batch_id": 13677,
            "duration": 1743218,
            "attribute1": null,
            "attribute2": null,
            "video_id": null,
            "name": "msft_70_687_02_high",
            "attribute3": null,
            "callback_url": null,
            "description": null,
            "created_at": "2013-08-09T16:06:10.000-04:00",
            "updated_at": "2014-06-18T16:30:52.000-04:00",
            "word_count": 5980,
            "thumbnail_url": null,
            "language_id": 1,
            "default_service_type_id": 1,
            "downloaded": true,
            "state": "delivered",
            "turnaround_level_id": 1,
            "deadline": "2013-08-15T20:00:00.000-04:00",
            "batch_name": "msft_70_687_01",
            "error_description": ""
        },
        {
            "id": 266216,
            "project_id": 12031,
            "batch_id": 13677,
            "duration": 1918808,
            "attribute1": null,
            "attribute2": null,
            "video_id": null,
            "name": "msft_70_687_03_high",
            "attribute3": null,
            "callback_url": null,
            "description": null,
            "created_at": "2013-08-09T16:06:10.000-04:00",
            "updated_at": "2014-06-18T16:30:52.000-04:00",
            "word_count": 6282,
            "thumbnail_url": null,
            "language_id": 1,
            "default_service_type_id": 1,
            "downloaded": true,
            "state": "delivered",
            "turnaround_level_id": 1,
            "deadline": "2013-08-15T20:00:00.000-04:00",
            "batch_name": "msft_70_687_01",
            "error_description": ""
        },
        {
            "id": 266217,
            "project_id": 12031,
            "batch_id": 13677,
            "duration": 1404207,
            "attribute1": null,
            "attribute2": null,
            "video_id": null,
            "name": "msft_70_687_04_high",
            "attribute3": null,
            "callback_url": null,
            "description": null,
            "created_at": "2013-08-09T16:06:11.000-04:00",
            "updated_at": "2014-06-18T16:30:52.000-04:00",
            "word_count": 4802,
            "thumbnail_url": null,
            "language_id": 1,
            "default_service_type_id": 1,
            "downloaded": true,
            "state": "delivered",
            "turnaround_level_id": 1,
            "deadline": "2013-08-15T20:00:00.000-04:00",
            "batch_name": "msft_70_687_01",
            "error_description": ""
        },
        {
            "id": 266218,
            "project_id": 12031,
            "batch_id": 13677,
            "duration": 1930185,
            "attribute1": null,
            "attribute2": null,
            "video_id": null,
            "name": "msft_70_687_05_high",
            "attribute3": null,
            "callback_url": null,
            "description": null,
            "created_at": "2013-08-09T16:06:11.000-04:00",
            "updated_at": "2014-06-18T16:30:52.000-04:00",
            "word_count": 6739,
            "thumbnail_url": null,
            "language_id": 1,
            "default_service_type_id": 1,
            "downloaded": true,
            "state": "delivered",
            "turnaround_level_id": 1,
            "deadline": "2013-08-15T20:00:00.000-04:00",
            "batch_name": "msft_70_687_01",
            "error_description": ""
        },
        {
            "id": 266219,
            "project_id": 12031,
            "batch_id": 13677,
            "duration": 2101874,
            "attribute1": null,
            "attribute2": null,
            "video_id": null,
            "name": "msft_70_687_06_high",
            "attribute3": null,
            "callback_url": null,
            "description": null,
            "created_at": "2013-08-09T16:06:11.000-04:00",
            "updated_at": "2014-06-18T16:30:52.000-04:00",
            "word_count": 6802,
            "thumbnail_url": null,
            "language_id": 1,
            "default_service_type_id": 1,
            "downloaded": true,
            "state": "delivered",
            "turnaround_level_id": 1,
            "deadline": "2013-08-15T20:00:00.000-04:00",
            "batch_name": "msft_70_687_01",
            "error_description": ""
        },
        {
            "id": 266220,
            "project_id": 12031,
            "batch_id": 13677,
            "duration": 2072476,
            "attribute1": null,
            "attribute2": null,
            "video_id": null,
            "name": "msft_70_687_07_high",
            "attribute3": null,
            "callback_url": null,
            "description": null,
            "created_at": "2013-08-09T16:06:12.000-04:00",
            "updated_at": "2014-06-18T16:30:52.000-04:00",
            "word_count": 6820,
            "thumbnail_url": null,
            "language_id": 1,
            "default_service_type_id": 1,
            "downloaded": true,
            "state": "delivered",
            "turnaround_level_id": 1,
            "deadline": "2013-08-15T20:00:00.000-04:00",
            "batch_name": "msft_70_687_01",
            "error_description": ""
        },
        {
            "id": 266221,
            "project_id": 12031,
            "batch_id": 13677,
            "duration": 1035892,
            "attribute1": null,
            "attribute2": null,
            "video_id": null,
            "name": "msft_70_687_08_high",
            "attribute3": null,
            "callback_url": null,
            "description": null,
            "created_at": "2013-08-09T16:06:13.000-04:00",
            "updated_at": "2014-06-18T16:30:52.000-04:00",
            "word_count": 3314,
            "thumbnail_url": null,
            "language_id": 1,
            "default_service_type_id": 1,
            "downloaded": true,
            "state": "delivered",
            "turnaround_level_id": 1,
            "deadline": "2013-08-15T20:00:00.000-04:00",
            "batch_name": "msft_70_687_01",
            "error_description": ""
        },
        {
            "id": 266222,
            "project_id": 12031,
            "batch_id": 13677,
            "duration": 1187333,
            "attribute1": null,
            "attribute2": null,
            "video_id": null,
            "name": "msft_70_687_09_high",
            "attribute3": null,
            "callback_url": null,
            "description": null,
            "created_at": "2013-08-09T16:06:13.000-04:00",
            "updated_at": "2014-06-18T16:30:52.000-04:00",
            "word_count": 3801,
            "thumbnail_url": null,
            "language_id": 1,
            "default_service_type_id": 1,
            "downloaded": true,
            "state": "delivered",
            "turnaround_level_id": 1,
            "deadline": "2013-08-15T20:00:00.000-04:00",
            "batch_name": "msft_70_687_01",
            "error_description": ""
        }
    ],
    "summary": {
        "current_page": 1,
        "per_page": 10,
        "total_entries": 9606,
        "total_pages": 961
    }
}