{
    "files": [
        {
            "id": 266222,
            "project_id": 12031,
            "batch_id": 13677,
            "duration": 1187333,
            "attribute1": null,
            "attribute2": null,
            "video_id": null,
            "name": "msft_70_687_09_high",
            "attribute3": null,
            "callback_url": null,
            "description": null,
            "created_at": "2013-08-09T16:06:13.000-04:00",
            "updated_at": "2014-06-18T16:30:52.000-04:00",
            "word_count": 3801,
            "thumbnail_url": null,
            "language_id": 1,
            "default_service_type_id": 1,
            "downloaded": true,
            "state": "error",
            "turnaround_level_id": 1,
            "deadline": "2013-08-15T20:00:00.000-04:00",
            "batch_name": "msft_70_687_01",
            "error_description": ""
        }
    ],
    "summary": {
        "current_page": 1,
        "per_page": 10,
        "total_entries": 9606,
        "total_pages": 961
    }
}